date,sex,team_country_athlete1,team_country_athlete2,sport,event,result,restype,position,qualify,record_code
"8/7/2012","W","Vira Rebryk","Ukraine","Athletics","Women's Javelin Throw Qualifying rd - Group B","58.97","metres","10","",""
"8/7/2012","W","Viorica Tigau","Rou","Athletics","Women's Long Jump Qualifying Rounds","6.21","metres","24","",""
"8/7/2012","W","Zakia Mrisho","Tanzania, United Republic Of","Athletics","Women's 5000m rd 1 - Heat 2","15:39.58","metres","16","",""
"8/7/2012","W","Zakia Mrisho","Tanzania, United Republic Of","Athletics","Women's 5000m rd 1","15:39.58","metres","31","",""
