eventid,sequenceid,source,phase,creationtime,msgstatus
9182264,347,U,PE,'2016-11-09 14:51:09.347702',6
9182264,346,U,PE,'2016-11-09 14:51:09.307016',6
9182264,345,U,PE,'2016-11-09 14:51:09.287304',6
9182264,344,U,PE,'2016-11-09 14:51:09.265511',6
9182264,343,U,PE,'2016-11-09 14:51:09.254096',13
9182264,342,U,PE,'2016-11-09 14:51:09.243187',13
9182264,341,U,PE,'2016-11-09 14:51:09.232185',13
9182264,340,U,PE,'2016-11-09 14:51:09.221303',13
9182264,339,U,PE,'2016-11-09 14:51:09.210403',13
9182264,338,U,PE,'2016-11-09 14:51:09.199501',13
9182264,337,U,PE,'2016-11-09 14:51:09.188587',13
9182264,336,U,PE,'2016-11-09 14:51:09.150103',6
9182264,335,U,PE,'2016-11-09 14:51:09.10943',6
9182264,334,U,PE,'2016-11-09 14:51:09.068847',6
9182264,333,U,PE,'2016-11-09 14:51:09.029602',6
9182264,332,U,PE,'2016-11-09 14:51:08.987565',6
9182264,331,U,PE,'2016-11-09 14:51:08.956138',6
9182264,330,U,PE,'2016-11-09 14:51:08.916191',6
9182264,329,U,PE,'2016-11-09 14:51:08.878399',6
9182264,328,U,PE,'2016-11-09 14:51:08.83498',6
9182264,327,U,PE,'2016-11-09 14:51:08.805006',6
9182264,326,U,PE,'2016-11-09 14:51:08.794156',6
9182264,325,U,PE,'2016-11-09 14:51:08.783953',13
9182264,324,U,PE,'2016-11-09 14:51:08.732945',6
9182264,323,U,PE,'2016-11-09 14:51:08.714169',13
9182264,322,U,PE,'2016-11-09 14:51:08.702642',13
9182264,321,U,PE,'2016-11-09 14:51:08.692336',13
9182264,320,U,PE,'2016-11-09 14:51:08.682361',13
9182264,319,U,PE,'2016-11-09 14:51:08.631997',13
9182264,318,U,PE,'2016-11-09 14:51:08.613187',13
9182264,317,U,PE,'2016-11-09 14:51:08.600868',13
9182264,316,U,PE,'2016-11-09 14:51:08.540093',13
9182264,315,U,PE,'2016-11-09 14:51:08.529966',13
9182264,314,U,PE,'2016-11-09 14:50:30.502652',2
9182264,313,U,PE,'2016-11-09 14:50:30.46178',8
9182264,312,U,PE,'2016-11-09 14:50:30.450146',2
9182264,311,U,PE,'2016-11-09 14:50:30.403294',2
9182264,310,U,PE,'2016-11-09 14:50:30.358434',2
9182264,309,U,SH,'2016-11-09 14:50:30.229393',5
9182264,308,U,SH,'2016-11-09 14:49:51.520225',2
9182264,307,U,SH,'2016-11-09 14:49:42.159023',4
9182264,306,U,SH,'2016-11-09 14:49:23.059796',5
9182264,305,U,SH,'2016-11-09 14:49:01.132297',9
9182264,304,U,SH,'2016-11-09 14:48:53.508295',2
9182264,303,U,SH,'2016-11-09 14:48:53.375614',4
9182264,302,U,SH,'2016-11-09 14:48:29.460529',2
9182264,301,U,SH,'2016-11-09 14:48:29.306536',5
9182264,300,U,SH,'2016-11-09 14:47:36.325883',2
9182264,299,U,SH,'2016-11-09 14:47:06.289933',2
9182264,298,U,SH,'2016-11-09 14:46:13.818323',2
9182264,297,U,SH,'2016-11-09 14:46:06.232481',2
9182264,296,U,SH,'2016-11-09 14:45:42.105458',9
9182264,295,U,SH,'2016-11-09 14:45:36.189151',2
9182264,294,U,SH,'2016-11-09 14:44:54.312095',2
9182264,293,U,SH,'2016-11-09 14:44:38.783303',6
9182264,292,U,SH,'2016-11-09 14:44:38.752975',13
9182264,291,U,SH,'2016-11-09 14:44:38.653006',6
9182264,290,U,SH,'2016-11-09 14:44:38.622303',13
9182264,289,U,SH,'2016-11-09 14:44:38.60212',13
9182264,288,U,SH,'2016-11-09 14:44:38.401743',13
9182264,287,U,SH,'2016-11-09 14:44:36.192926',2
9182264,286,U,SH,'2016-11-09 14:44:29.708389',6
9182264,285,U,SH,'2016-11-09 14:44:29.688265',6
9182264,284,U,SH,'2016-11-09 14:44:25.959808',2
9182264,283,U,SH,'2016-11-09 14:44:25.800058',4
9182264,282,U,SH,'2016-11-09 14:43:58.749008',9
9182264,281,U,SH,'2016-11-09 14:43:41.979487',2
9182264,280,U,SH,'2016-11-09 14:43:38.6981',2
9182264,279,U,SH,'2016-11-09 14:43:38.656075',8
9182264,278,U,SH,'2016-11-09 14:43:38.610069',2
9182264,277,U,SH,'2016-11-09 14:43:37.20337',5
9182264,276,U,SH,'2016-11-09 14:43:36.094267',2
9182264,275,U,SH,'2016-11-09 14:43:06.059682',2
9182264,274,U,SH,'2016-11-09 14:42:36.025731',2
9182264,273,U,SH,'2016-11-09 14:42:05.997125',2
9182264,272,U,SH,'2016-11-09 14:41:36.032074',2
9182264,271,U,SH,'2016-11-09 14:41:05.927088',2
9182264,270,U,SH,'2016-11-09 14:40:35.882369',2
9182264,269,U,SH,'2016-11-09 14:40:05.861281',2
9182264,268,U,SH,'2016-11-09 14:39:35.816695',2
9182264,267,U,SH,'2016-11-09 14:39:05.779356',2
9182264,266,U,SH,'2016-11-09 14:38:35.743684',2
9182264,265,U,SH,'2016-11-09 14:38:05.708029',2
9182264,264,U,SH,'2016-11-09 14:37:35.675805',2
9182264,263,U,SH,'2016-11-09 14:37:05.646205',2
9182264,262,U,SH,'2016-11-09 14:36:35.602501',2
9182264,261,U,SH,'2016-11-09 14:36:05.555985',2
9182264,260,U,SH,'2016-11-09 14:35:35.504508',2
9182264,259,U,SH,'2016-11-09 14:35:23.21217',9
9182264,258,U,SH,'2016-11-09 14:35:05.473693',2
9182264,257,U,SH,'2016-11-09 14:34:35.420864',2
9182264,256,U,SH,'2016-11-09 14:33:39.449933',2
9182264,255,U,SH,'2016-11-09 14:33:35.377164',2
9182264,254,U,SH,'2016-11-09 14:33:05.343838',2
9182264,253,U,SH,'2016-11-09 14:32:35.313207',2
9182264,252,U,SH,'2016-11-09 14:32:05.251288',2
9182264,251,U,SH,'2016-11-09 14:31:33.849874',2
9182264,250,U,SH,'2016-11-09 14:31:05.201977',2
9182264,249,U,SH,'2016-11-09 14:30:35.168992',2
9182264,248,U,SH,'2016-11-09 14:29:44.545835',2
9182264,247,U,SH,'2016-11-09 14:29:35.119516',2
9182264,246,U,SH,'2016-11-09 14:29:05.104174',2
9182264,245,U,SH,'2016-11-09 14:28:35.083524',2
9182264,244,U,SH,'2016-11-09 14:28:05.015149',2
9182264,243,U,SH,'2016-11-09 14:28:04.249517',9
9182264,242,U,SH,'2016-11-09 14:28:00.804551',9
9182264,241,U,SH,'2016-11-09 14:27:34.977993',2
9182264,240,U,SH,'2016-11-09 14:27:04.946094',2
9182264,239,U,SH,'2016-11-09 14:26:34.905505',2
9182264,238,U,SH,'2016-11-09 14:26:04.88252',2
9182264,237,U,SH,'2016-11-09 14:25:34.843084',2
9182264,236,U,SH,'2016-11-09 14:25:04.799338',2
9182264,235,U,SH,'2016-11-09 14:24:32.895572',2
9182264,234,U,SH,'2016-11-09 14:24:04.765634',2
9182264,233,U,SH,'2016-11-09 14:23:32.346665',2
9182264,232,U,SH,'2016-11-09 14:23:32.211382',6
9182264,231,U,SH,'2016-11-09 14:23:17.036046',6
9182264,230,U,SH,'2016-11-09 14:23:17.006924',6
9182264,229,U,SH,'2016-11-09 14:23:05.19007',2
9182264,228,U,SH,'2016-11-09 14:23:05.039953',4
9182264,227,U,SH,'2016-11-09 14:23:04.722747',2
9182264,226,U,SH,'2016-11-09 14:22:25.801749',2
9182264,225,U,SH,'2016-11-09 14:22:22.420064',2
9182264,224,U,SH,'2016-11-09 14:22:22.378032',8
9182264,223,U,SH,'2016-11-09 14:22:22.331359',2
9182264,222,U,SH,'2016-11-09 14:22:20.542303',2
9182264,221,U,SH,'2016-11-09 14:22:20.385462',5
9182264,220,U,SH,'2016-11-09 14:22:04.73578',2
9182264,219,U,SH,'2016-11-09 14:21:34.644564',2
9182264,218,U,SH,'2016-11-09 14:21:04.628887',2
9182264,217,U,SH,'2016-11-09 14:20:34.570649',2
9182264,216,U,SH,'2016-11-09 14:20:04.529322',2
9182264,215,U,SH,'2016-11-09 14:19:34.500108',2
9182264,214,U,SH,'2016-11-09 14:19:04.478287',2
9182264,213,U,SH,'2016-11-09 14:18:34.4247',2
9182264,212,U,SH,'2016-11-09 14:18:04.388792',2
9182264,211,U,SH,'2016-11-09 14:17:34.342913',2
9182264,210,U,SH,'2016-11-09 14:17:04.294992',2
9182264,209,U,SH,'2016-11-09 14:16:34.263125',2
9182264,208,U,SH,'2016-11-09 14:16:04.233084',2
9182264,207,U,SH,'2016-11-09 14:15:34.183649',2
9182264,206,U,SH,'2016-11-09 14:15:04.157707',2
9182264,205,U,SH,'2016-11-09 14:14:34.082151',2
9182264,204,U,SH,'2016-11-09 14:14:04.056922',2
9182264,203,U,SH,'2016-11-09 14:13:34.018068',2
9182264,202,U,SH,'2016-11-09 14:13:03.99209',2
9182264,201,U,SH,'2016-11-09 14:12:33.958946',2
9182264,200,U,SH,'2016-11-09 14:12:03.91179',2
9182264,199,U,SH,'2016-11-09 14:11:33.878953',2
9182264,198,U,SH,'2016-11-09 14:11:03.864094',2
9182264,197,U,SH,'2016-11-09 14:10:41.185927',2
9182264,196,U,SH,'2016-11-09 14:10:33.800895',2
9182264,195,U,SH,'2016-11-09 14:10:03.780005',2
9182264,194,U,SH,'2016-11-09 14:09:55.652379',2
9182264,193,U,SH,'2016-11-09 14:09:33.745016',2
9182264,192,U,SH,'2016-11-09 14:09:03.699464',2
9182264,191,U,SH,'2016-11-09 14:08:09.201229',2
9182264,190,U,SH,'2016-11-09 14:08:03.670052',2
9182264,189,U,SH,'2016-11-09 14:07:33.625855',2
9182264,188,U,SH,'2016-11-09 14:07:03.608312',2
9182264,187,U,SH,'2016-11-09 14:06:33.57578',2
9182264,186,U,SH,'2016-11-09 14:06:03.534357',2
9182264,185,U,SH,'2016-11-09 14:05:33.492295',2
9182264,184,U,SH,'2016-11-09 14:05:03.486939',2
9182264,183,U,SH,'2016-11-09 14:04:33.425494',2
9182264,182,U,SH,'2016-11-09 14:04:03.392388',2
9182264,181,U,SH,'2016-11-09 14:03:33.348903',2
9182264,180,U,SH,'2016-11-09 14:03:03.318688',2
9182264,179,U,SH,'2016-11-09 14:02:20.67253',2
9182264,178,U,SH,'2016-11-09 14:02:20.562118',2
9182264,177,U,SH,'2016-11-09 14:02:20.462062',2
9182264,176,U,HT,'2016-11-09 13:59:53.440178',2
9182264,175,U,HT,'2016-11-09 13:57:22.56437',4
9182264,174,U,HT,'2016-11-09 13:57:13.211951',5
9182264,173,U,HT,'2016-11-09 13:47:07.014961',6
9182264,172,U,HT,'2016-11-09 13:47:06.974434',6
9182264,171,U,HT,'2016-11-09 13:47:06.944485',6
9182264,170,U,HT,'2016-11-09 13:47:06.914305',6
9182264,169,U,HT,'2016-11-09 13:47:06.903666',13
9182264,168,U,HT,'2016-11-09 13:47:06.843207',13
9182264,167,U,HT,'2016-11-09 13:47:06.833261',13
9182264,166,U,HT,'2016-11-09 13:47:06.823251',13
9182264,165,U,HT,'2016-11-09 13:47:06.74326',6
9182264,164,U,HT,'2016-11-09 13:47:06.713148',6
9182264,163,U,HT,'2016-11-09 13:47:06.652728',6
9182264,162,U,HT,'2016-11-09 13:47:06.632281',13
9182264,161,U,HT,'2016-11-09 13:47:06.622176',13
9182264,160,U,HT,'2016-11-09 13:47:06.612036',13
9182264,159,U,HT,'2016-11-09 13:47:06.561778',13
9182264,158,U,HT,'2016-11-09 13:47:06.551718',13
9182264,157,U,HT,'2016-11-09 13:47:06.54154',13
9182264,156,U,HT,'2016-11-09 13:47:06.531301',13
9182264,155,U,HT,'2016-11-09 13:47:06.521191',13
9182264,154,U,HT,'2016-11-09 13:47:06.511095',13
9182264,153,U,HT,'2016-11-09 13:47:06.481437',6
9182264,152,U,HT,'2016-11-09 13:47:06.401372',6
9182264,151,U,HT,'2016-11-09 13:47:06.361283',6
9182264,150,U,HT,'2016-11-09 13:47:06.350022',13
9182264,149,U,HT,'2016-11-09 13:47:06.339997',13
9182264,148,U,HT,'2016-11-09 13:47:06.329813',13
9182264,147,U,HT,'2016-11-09 13:47:06.319477',13
9182264,146,U,HT,'2016-11-09 13:47:06.299473',13
9182264,145,U,HT,'2016-11-09 13:47:06.279486',13
9182264,144,U,HT,'2016-11-09 13:47:06.239825',6
9182264,143,U,HT,'2016-11-09 13:47:06.229195',13
9182264,142,U,HT,'2016-11-09 13:47:06.158222',13
9182264,141,U,HT,'2016-11-09 13:47:06.148221',13
9182264,140,U,HT,'2016-11-09 13:47:06.067996',13
9182264,139,U,HT,'2016-11-09 13:47:06.037652',13
9182264,138,U,HT,'2016-11-09 13:47:05.967612',13
9182264,137,U,HT,'2016-11-09 13:47:05.947354',13
9182264,136,U,HT,'2016-11-09 13:47:03.203474',2
9182264,135,U,HT,'2016-11-09 13:46:35.817359',2
9182264,134,U,HT,'2016-11-09 13:46:35.736939',2
9182264,133,U,HT,'2016-11-09 13:46:35.647188',2
9182264,132,U,FH,'2016-11-09 13:46:33.032543',2
9182264,131,U,FH,'2016-11-09 13:46:03.082765',2
9182264,130,U,FH,'2016-11-09 13:45:33.044456',2
9182264,129,U,FH,'2016-11-09 13:45:03.018423',2
9182264,128,U,FH,'2016-11-09 13:44:32.970773',2
9182264,127,U,FH,'2016-11-09 13:44:02.92847',2
9182264,126,U,FH,'2016-11-09 13:43:32.863032',2
9182264,125,U,FH,'2016-11-09 13:43:02.856102',2
9182264,124,U,FH,'2016-11-09 13:42:32.79863',2
9182264,123,U,FH,'2016-11-09 13:42:02.819802',2
9182264,122,U,FH,'2016-11-09 13:41:32.76665',2
9182264,121,U,FH,'2016-11-09 13:41:02.701956',2
9182264,120,U,FH,'2016-11-09 13:40:32.621522',2
9182264,119,U,FH,'2016-11-09 13:40:02.620059',2
9182264,118,U,FH,'2016-11-09 13:39:32.584441',2
9182264,117,U,FH,'2016-11-09 13:39:02.514053',2
9182264,116,U,FH,'2016-11-09 13:38:32.478524',2
9182264,115,U,FH,'2016-11-09 13:38:02.414369',2
9182264,114,U,FH,'2016-11-09 13:37:32.406949',2
9182264,113,U,FH,'2016-11-09 13:37:02.341849',2
9182264,112,U,FH,'2016-11-09 13:36:32.305762',2
9182264,111,U,FH,'2016-11-09 13:36:02.251755',2
9182264,110,U,FH,'2016-11-09 13:35:32.148161',2
9182264,377,U,PE,'2016-11-09 14:51:10.278954',6
9182264,376,U,PE,'2016-11-09 14:51:10.227521',13
9182264,375,U,PE,'2016-11-09 14:51:10.217364',13
9182264,374,U,PE,'2016-11-09 14:51:10.207597',13
9182264,373,U,PE,'2016-11-09 14:51:10.197392',13
9182264,372,U,PE,'2016-11-09 14:51:10.187032',13
9182264,371,U,PE,'2016-11-09 14:51:10.157751',6
9182264,370,U,PE,'2016-11-09 14:51:10.132341',6
9182264,369,U,PE,'2016-11-09 14:51:10.102196',6
9182264,368,U,PE,'2016-11-09 14:51:10.082436',6
9182264,367,U,PE,'2016-11-09 14:51:10.061981',6
9182264,366,U,PE,'2016-11-09 14:51:09.991525',6
9182264,365,U,PE,'2016-11-09 14:51:09.891515',6
9182264,364,U,PE,'2016-11-09 14:51:09.860981',6
9182264,363,U,PE,'2016-11-09 14:51:09.831199',6
9182264,362,U,PE,'2016-11-09 14:51:09.800514',6
9182264,361,U,PE,'2016-11-09 14:51:09.78003',13
9182264,360,U,PE,'2016-11-09 14:51:09.730231',13
9182264,359,U,PE,'2016-11-09 14:51:09.699904',13
9182264,358,U,PE,'2016-11-09 14:51:09.680159',6
9182264,357,U,PE,'2016-11-09 14:51:09.599498',13
9182264,356,U,PE,'2016-11-09 14:51:09.548317',13
9182264,355,U,PE,'2016-11-09 14:51:09.528317',13
9182264,354,U,PE,'2016-11-09 14:51:09.518208',13
9182264,353,U,PE,'2016-11-09 14:51:09.467976',13
9182264,352,U,PE,'2016-11-09 14:51:09.457819',13
9182264,351,U,PE,'2016-11-09 14:51:09.447659',13
9182264,350,U,PE,'2016-11-09 14:51:09.397298',13
9182264,349,U,PE,'2016-11-09 14:51:09.387486',13
9182264,348,U,PE,'2016-11-09 14:51:09.376989',13
9182264,109,U,FH,'2016-11-09 13:35:02.111307',2
9182264,108,U,FH,'2016-11-09 13:34:32.062711',2
9182264,107,U,FH,'2016-11-09 13:34:02.014983',2
9182264,106,U,FH,'2016-11-09 13:33:31.99241',2
9182264,105,U,FH,'2016-11-09 13:33:01.937917',2
9182264,104,U,FH,'2016-11-09 13:32:31.924608',2
9182264,103,U,FH,'2016-11-09 13:32:04.070986',2
9182264,102,U,FH,'2016-11-09 13:32:03.94157',4
9182264,101,U,FH,'2016-11-09 13:32:01.861665',2
9182264,100,U,FH,'2016-11-09 13:31:31.807229',2
9182264,99,U,FH,'2016-11-09 13:31:08.857611',9
9182264,98,U,FH,'2016-11-09 13:31:01.785591',2
9182264,97,U,FH,'2016-11-09 13:30:56.240778',2
9182264,96,U,FH,'2016-11-09 13:30:56.100281',5
9182264,95,U,FH,'2016-11-09 13:30:31.735192',2
9182264,94,U,FH,'2016-11-09 13:30:01.718282',2
9182264,93,U,FH,'2016-11-09 13:29:31.634526',2
9182264,92,U,FH,'2016-11-09 13:29:01.610332',2
9182264,91,U,FH,'2016-11-09 13:28:16.545557',4
9182264,90,U,FH,'2016-11-09 13:28:15.768968',2
9182264,89,U,FH,'2016-11-09 13:28:10.732667',2
9182264,88,U,FH,'2016-11-09 13:28:08.583968',2
9182264,87,U,FH,'2016-11-09 13:28:08.28849',5
9182264,86,U,FH,'2016-11-09 13:28:07.332132',13
9182264,85,U,FH,'2016-11-09 13:28:07.171264',13
9182264,84,U,FH,'2016-11-09 13:28:06.950498',4
9182264,83,U,FH,'2016-11-09 13:28:05.5267',2
9182264,82,U,FH,'2016-11-09 13:28:03.270829',6
9182264,81,U,FH,'2016-11-09 13:28:03.189227',6
9182264,80,U,FH,'2016-11-09 13:28:03.158998',6
9182264,77,U,FH,'2016-11-09 13:28:02.712584',6
9182264,76,U,FH,'2016-11-09 13:28:02.510723',6
9182264,79,U,FH,'2016-11-09 13:27:06.679589',5
9182264,74,U,FH,'2016-11-09 13:26:48.506124',2
9182264,73,U,FH,'2016-11-09 13:26:28.41539',2
9182264,72,U,FH,'2016-11-09 13:26:18.46417',2
9182264,71,U,FH,'2016-11-09 13:26:01.443895',2
9182264,70,U,FH,'2016-11-09 13:25:31.372912',2
9182264,69,U,FH,'2016-11-09 13:25:01.337316',2
9182264,68,U,FH,'2016-11-09 13:24:31.291182',2
9182264,67,U,FH,'2016-11-09 13:24:01.256886',2
9182264,66,U,FH,'2016-11-09 13:23:31.211829',2
9182264,65,U,FH,'2016-11-09 13:23:01.172919',2
9182264,64,U,FH,'2016-11-09 13:22:31.150074',2
9182264,63,U,FH,'2016-11-09 13:22:01.105546',2
9182264,62,U,FH,'2016-11-09 13:21:31.065843',2
9182264,61,U,FH,'2016-11-09 13:21:01.021346',2
9182264,60,U,FH,'2016-11-09 13:20:54.092451',5
9182264,59,U,FH,'2016-11-09 13:20:48.111277',4
9182264,58,U,FH,'2016-11-09 13:20:30.982334',2
9182264,57,U,FH,'2016-11-09 13:20:00.936753',2
9182264,56,U,FH,'2016-11-09 13:19:30.887458',2
9182264,55,U,FH,'2016-11-09 13:19:00.846235',2
9182264,54,U,FH,'2016-11-09 13:18:30.807179',2
9182264,53,U,FH,'2016-11-09 13:18:25.658873',2
9182264,52,U,FH,'2016-11-09 13:18:25.547173',2
9182264,51,U,FH,'2016-11-09 13:17:56.208022',2
9182264,50,U,FH,'2016-11-09 13:17:55.471753',2
9182264,49,U,FH,'2016-11-09 13:17:55.461856',8
9182264,48,U,FH,'2016-11-09 13:17:55.377288',2
9182264,47,U,FH,'2016-11-09 13:17:48.867847',2
9182264,46,U,FH,'2016-11-09 13:17:30.766674',2
9182264,45,U,FH,'2016-11-09 13:17:00.731325',2
9182264,44,U,FH,'2016-11-09 13:16:30.687262',2
9182264,43,U,FH,'2016-11-09 13:16:00.633382',2
9182264,42,U,FH,'2016-11-09 13:15:30.594614',2
9182264,41,U,FH,'2016-11-09 13:15:00.552705',2
9182264,40,U,FH,'2016-11-09 13:14:30.52355',2
9182264,39,U,FH,'2016-11-09 13:14:00.484821',2
9182264,38,U,FH,'2016-11-09 13:13:30.438714',2
9182264,37,U,FH,'2016-11-09 13:13:00.3809',2
9182264,36,U,FH,'2016-11-09 13:12:30.334148',2
9182264,35,U,FH,'2016-11-09 13:12:00.290363',2
9182264,34,U,FH,'2016-11-09 13:11:30.252835',2
9182264,33,U,FH,'2016-11-09 13:11:00.205792',2
9182264,32,U,FH,'2016-11-09 13:10:30.168769',2
9182264,31,U,FH,'2016-11-09 13:10:00.135018',2
9182264,30,U,FH,'2016-11-09 13:09:30.107461',2
9182264,29,U,FH,'2016-11-09 13:09:00.049901',2
9182264,28,U,FH,'2016-11-09 13:08:30.025389',2
9182264,27,U,FH,'2016-11-09 13:07:59.979944',2
9182264,26,U,FH,'2016-11-09 13:07:29.933864',2
9182264,25,U,FH,'2016-11-09 13:06:59.904171',2
9182264,24,U,FH,'2016-11-09 13:06:29.86491',2
9182264,23,U,FH,'2016-11-09 13:05:59.826207',2
9182264,22,U,FH,'2016-11-09 13:05:29.796343',2
9182264,21,U,FH,'2016-11-09 13:04:59.69321',2
9182264,20,U,FH,'2016-11-09 13:04:29.652955',2
9182264,19,U,FH,'2016-11-09 13:03:59.60265',2
9182264,18,U,FH,'2016-11-09 13:02:40.383956',2
9182264,17,U,FH,'2016-11-09 13:02:40.010231',2
9182264,16,U,FH,'2016-11-09 13:02:39.853347',2
9182264,15,U,FH,'2016-11-09 13:02:20.465645',2
9182264,14,U,FH,'2016-11-09 13:02:10.781523',2
9182264,13,U,FH,'2016-11-09 13:02:10.731566',8
9182264,12,U,FH,'2016-11-09 13:02:10.68003',2
9182264,11,U,FH,'2016-11-09 13:02:06.787757',5
9182264,10,U,FH,'2016-11-09 13:01:23.822937',2
9182264,9,U,FH,'2016-11-09 13:01:23.722629',2
9182264,8,U,FH,'2016-11-09 13:01:23.602371',2
9182264,7,U,PR,'2016-11-09 12:58:46.266934',2
9182264,6,U,PR,'2016-11-09 12:52:45.196205',2
9182264,5,U,PR,'2016-11-09 12:52:34.211772',2
9182264,4,U,PR,'2016-11-09 12:52:17.05141',2
9182264,3,U,PR,'2016-11-09 12:47:29.404067',2
9182264,2,U,PR,'2016-11-09 12:45:43.578362',2
9182264,1,U,PR,'2016-11-09 12:45:43.55936',4
9182264,0,U,PR,'2016-11-09 06:51:18.535614',3
